{
    "prepare_queue": {
        "installed": [],
        "uninstalled": []
    },
    "config_munge": {
        "files": {
            "config.xml": {
                "parents": {
                    "/*": [
                        {
                            "xml": "<feature name=\"YoikScreenOrientation\"><param name=\"ios-package\" value=\"YoikScreenOrientation\" /></feature>",
                            "count": 1
                        },
                        {
                            "xml": "<feature name=\"Insomnia\"><param name=\"ios-package\" value=\"Insomnia\" /></feature>",
                            "count": 1
                        }
                    ]
                }
            }
        }
    },
    "installed_plugins": {
        "net.yoik.cordova.plugins.screenorientation": {
            "PACKAGE_NAME": "uk.co.warrenkeith.dementiaclock"
        },
        "nl.x-services.plugins.insomnia": {
            "PACKAGE_NAME": "uk.co.warrenkeith.dementiaclock"
        }
    },
    "dependent_plugins": {}
}